…
The first column excluded above is our target variable class. We should not forget to do the same transformation to the test set.

test[-1] <- test[-1] %>% 
  modify(~replace(., .=="na", NA)) %>%
  modify(., as.double)

If we try to apply the summary function on the entire variables (170), we will spent a lot of time to read the summary of each variable without much gain. Instead, we try to get an automated way to get only the information needed to build efficiently our model. To decide whether we should normalize the data or not, for instance, we display the standard deviances of all the variable in decreasing order.

Note: with tree based models we do not need neither normalize the data nor converting factors to dummies.

map_dbl(train[-1], sd, na.rm=TRUE) %>% 
  tibble(sd = .) %>% 
  arrange(-sd)

# A tibble: 170 x 1
           sd
        <dbl>
 1 794874918.
 2  97484780.
 3  42746746.
 4  40404413.
 5  40404412.
 6  40404411.
 7  11567771.
 8  10886737.
 9  10859905.
10  10859904.
# ... with 160 more rows
…
dim(train[!complete.cases(train),])

[1] 59409   171

As we see almost every row contains at least one missing value in some columns. Let’s check the distribution of missing values within columns.

df <- modify(train[-1], is.na) %>% 
  colSums() %>%
  tibble(names = colnames(train[-1]),missing_values=.) %>% 
  arrange(-missing_values)
  
df

# A tibble: 170 x 2
   names  missing_values
   <chr>           <dbl>
 1 br_000          49264
 2 bq_000          48722
 3 bp_000          47740
 4 bo_000          46333
 5 ab_000          46329
 6 cr_000          46329
 7 bn_000          44009
 8 bm_000          39549
 9 bl_000          27277
10 bk_000          23034
# ... with 160 more rows
…
