…
#tuned <- tune_wf %>% 
#   tune_grid(resamples = folds, 
#            grid =expand.grid(mtry=1:10, min_n=1:10),
#            metrics=metric_set(roc_auc))

To extract the results we use the collect_metrics function.

#df <- tuned %>% collect_metrics()
#write_csv(df, "C:/Users/dell/Documents/new-blog/content/bayes/hyper_bayes/df.csv")
df <- read_csv("C:/Users/dell/Documents/new-blog/content/bayes/hyper_bayes/df.csv")
df <- df %>% arrange(-mean) %>% tibble(rank=seq_len(nrow(df)), .)

df

# A tibble: 100 x 8
    rank  mtry min_n .metric .estimator  mean     n std_err
   <int> <dbl> <dbl> <chr>   <chr>      <dbl> <dbl>   <dbl>
 1     1     1     2 roc_auc binary     0.984     5 0.00198
 2     2     3     6 roc_auc binary     0.984     5 0.00204
 3     3     3     7 roc_auc binary     0.983     5 0.00269
 4     4     3     8 roc_auc binary     0.983     5 0.00304
 5     5     2    10 roc_auc binary     0.983     5 0.00200
 6     6     3     4 roc_auc binary     0.983     5 0.00246
 7     7     4     4 roc_auc binary     0.983     5 0.00224
 8     8     2     1 roc_auc binary     0.983     5 0.00170
 9     9     3     5 roc_auc binary     0.983     5 0.00271
10    10     4     5 roc_auc binary     0.983     5 0.00246
# ... with 90 more rows
…
#tuned_deepl <- tune_wf1 %>% 
#  tune_grid(resamples = folds, 
#            grid = expand.grid(hidden_units=5:15, epochs=10:20),
#            metrics=metric_set(roc_auc))

#df1 <- tuned_deepl %>% collect_metrics()

#write_csv(df1, "C:/Users/dell/Documents/new-blog/content/bayes/hyper_bayes/df1.csv")

df1 <- read_csv("C:/Users/dell/Documents/new-blog/content/bayes/hyper_bayes/df1.csv")

df1 %>% arrange(-mean)

# A tibble: 121 x 7
   hidden_units epochs .metric .estimator  mean     n std_err
          <dbl>  <dbl> <chr>   <chr>      <dbl> <dbl>   <dbl>
 1           12     18 roc_auc binary     0.982     5 0.00255
 2           11     20 roc_auc binary     0.982     5 0.00265
 3            9     14 roc_auc binary     0.982     5 0.00274
 4            8     16 roc_auc binary     0.982     5 0.00207
 5           14     18 roc_auc binary     0.982     5 0.00241
 6           14     20 roc_auc binary     0.982     5 0.00244
 7           12     17 roc_auc binary     0.982     5 0.00265
 8           10     16 roc_auc binary     0.982     5 0.00230
 9           10     19 roc_auc binary     0.981     5 0.00231
10           12     20 roc_auc binary     0.981     5 0.00227
# ... with 111 more rows
…
