…
Fortunately, sparklyr also supports the functions of broom package so that We can get nicer table using the function tidy.

library(broom)
tidy(model_in_spark)

## # A tibble: 31 x 2
##    features    coefficients
##    <chr>              <dbl>
##  1 (Intercept)  -8.31      
##  2 Time         -0.00000407
##  3 V1            0.107     
##  4 V2            0.0147    
##  5 V3           -0.00843   
##  6 V4            0.700     
##  7 V5            0.138     
##  8 V6           -0.122     
##  9 V7           -0.121     
## 10 V8           -0.170     
## # ... with 21 more rows
…
