…
## Warning in tseries::garch(model_arima$residuals, order = c(p, q), trace = F):
## singular information

## Warning in tseries::garch(model_arima$residuals, order = c(p, q), trace = F):
## singular information

## Warning in tseries::garch(model_arima$residuals, order = c(p, q), trace = F):
## singular information

## Warning in tseries::garch(model_arima$residuals, order = c(p, q), trace = F):
## singular information

def %>% dplyr::arrange(AIC)

## # A tibble: 25 x 2
##    model         AIC
##    <chr>       <dbl>
##  1 mod_ 1 1 -647018.
##  2 mod_ 2 1 -647005.
##  3 mod_ 1 2 -647005.
##  4 mod_ 2 3 -646986.
##  5 mod_ 1 3 -646971.
##  6 mod_ 1 4 -646967.
##  7 mod_ 2 2 -646900.
##  8 mod_ 3 3 -646885.
##  9 mod_ 3 1 -646859.
## 10 mod_ 1 5 -646859.
## # ... with 15 more rows
…
