…
  model_lsh,
  trained,
  key = id_input,
  dist_col = 'dist',
  num_nearest_neighbors = 7
)
n<-sdf_nrow(knn)
pred<-knn%>%select(Survived)%>%
  summarise(p=sum(Survived)/n)%>%
  collect()
mypred<-rbind(mypred,pred)
}
mypred

# A tibble: 200 x 1
       p
   <dbl>
 1 0.286
 2 1    
 3 0.571
 4 0    
 5 0.143
 6 0.857
 7 0.429
 8 1    
 9 1    
10 0.857
# ... with 190 more rows
…
